id|event_id|begin_at|end_at
1|0|2024-08-23 18:38:40|
2|0|2024-08-23 18:38:54|
4|2|2024-08-26 18:17:32|
65|1|2024-09-17 17:33:04|2024-09-17 17:38:11
3|0|2024-08-23 18:38:58|2024-08-23 18:41:03
5|2|2024-08-28 10:40:21|2024-08-28 11:09:36
6|2|2024-08-28 12:09:36|2024-08-28 12:15:29
7|0|2024-09-02 11:33:42|2024-09-02 11:35:39
8|0|2024-09-02 11:43:47|2024-09-02 11:45:45
9|0|2024-09-02 11:46:29|2024-09-02 12:05:04
10|0|2024-09-02 12:05:30|2024-09-02 12:28:58
11|0|2024-09-02 14:16:46|2024-09-02 14:33:32
12|3|2024-09-02 15:55:55|2024-09-02 17:50:22
13|3|2024-09-04 10:34:50|
14|3|2024-09-04 10:37:17|
15|3|2024-09-04 11:58:54|2024-09-04 14:14:46
16|3|2024-09-04 16:21:07|2024-09-04 16:23:13
17|3|2024-09-04 16:25:18|2024-09-04 16:27:18
18|3|2024-09-04 16:31:22|2024-09-04 16:33:27
19|3|2024-09-04 16:38:50|2024-09-04 16:39:55
20|3|2024-09-04 16:42:32|2024-09-04 16:43:39
21|3|2024-09-09 11:55:55|2024-09-09 11:58:04
22|3|2024-09-09 15:37:29|2024-09-09 15:38:42
23|3|2024-09-09 16:42:38|2024-09-09 16:43:33
24|3|2024-09-09 16:55:53|2024-09-09 16:57:35
25|3|2024-09-10 10:57:58|2024-09-10 11:00:09
26|3|2024-09-10 15:46:16|2024-09-10 15:49:02
27|3|2024-09-10 15:51:37|2024-09-10 15:52:18
28|3|2024-09-10 16:21:39|2024-09-10 16:23:18
29|3|2024-09-10 16:50:05|2024-09-10 16:51:36
30|3|2024-09-10 16:53:16|2024-09-10 16:54:38
31|3|2024-09-10 17:36:15|2024-09-10 17:37:51
32|3|2024-09-11 10:05:51|2024-09-11 10:06:52
33|3|2024-09-11 10:48:25|2024-09-11 10:50:01
34|3|2024-09-11 11:05:12|2024-09-11 11:09:13
35|3|2024-09-11 13:06:43|2024-09-11 13:07:57
36|3|2024-09-11 13:27:35|2024-09-11 13:30:31
37|3|2024-09-11 13:51:48|2024-09-11 13:54:06
38|3|2024-09-11 13:57:57|2024-09-11 13:59:10
39|1|2024-09-16 17:30:50|2024-09-16 17:35:50
40|1|2024-09-16 18:23:11|2024-09-16 18:24:56
41|1|2024-09-16 18:29:32|2024-09-16 18:32:38
42|1|2024-09-17 08:35:20|2024-09-17 08:36:53
43|1|2024-09-17 08:38:42|2024-09-17 08:42:10
44|1|2024-09-17 08:42:39|2024-09-17 08:44:15
45|1|2024-09-17 09:49:09|2024-09-17 09:52:16
46|1|2024-09-17 10:19:13|2024-09-17 10:22:21
47|1|2024-09-17 10:24:49|2024-09-17 10:27:07
48|1|2024-09-17 10:34:26|2024-09-17 10:37:53
49|1|2024-09-17 10:46:13|2024-09-17 10:48:39
50|1|2024-09-17 11:22:40|2024-09-17 11:24:46
51|1|2024-09-17 11:39:40|2024-09-17 11:42:32
52|1|2024-09-17 11:49:25|2024-09-17 11:51:38
53|1|2024-09-17 12:00:59|2024-09-17 12:03:49
54|1|2024-09-17 12:48:34|2024-09-17 12:50:14
55|1|2024-09-17 12:52:07|2024-09-17 12:53:18
56|1|2024-09-17 13:06:56|2024-09-17 13:09:27
57|1|2024-09-17 13:19:45|2024-09-17 13:23:28
58|1|2024-09-17 13:34:39|2024-09-17 13:37:44
59|1|2024-09-17 13:41:47|2024-09-17 13:46:26
60|1|2024-09-17 14:17:20|2024-09-17 14:18:50
61|1|2024-09-17 14:35:28|2024-09-17 14:38:32
62|1|2024-09-17 16:18:25|2024-09-17 16:20:48
63|1|2024-09-17 16:43:33|2024-09-17 16:45:36
64|1|2024-09-17 17:15:15|2024-09-17 17:17:30
