session_id|event_id|player_id|name|track_num|turn|duration_s|co2_ug|nb_outoftrack|nb_gate|turn_adjust|is_turn_valid
65|1|66|anonym-66|1|0|2.715|124.09800243377686|0|8|1|true
65|1|66|anonym-66|1|1|2.333|155.95100045204163|0|8|2|true
65|1|66|anonym-66|1|2|2.112|161.3269985616207|0|8|3|true
65|1|66|anonym-66|1|3|17.165|377.1479993702378|3|6|4|false
65|1|66|anonym-66|1|4|2.675|128.74600138515234|0|8|5|true
65|1|66|anonym-66|1|5|8.721|164.1379988193512|7|7|6|true
65|1|66|anonym-66|1|6|1.326|0.49399998784065247|0|1|7|false
65|1|66|anonym-66|1|7|6.001|0.39399999380111694|0|1|8|false
65|1|66|anonym-66|1|8|2.592|136.5749990195036|0|7|9|true
65|1|66|anonym-66|1|9|11.803|202.44600221468136|2|7|10|true
65|1|66|anonym-66|1|10|4.86|244.25200090557337|0|7|11|true
65|1|66|anonym-66|1|11|13.416|129.45999908447266|4|4|12|false
65|1|66|anonym-66|1|68|4.905|0.02500000037252903|0|1|13|false
65|1|66|anonym-66|1|69|6.648|171.473000228405|3|6|14|false
65|1|66|anonym-66|1|70|24.106|491.21399985055905|7|8|15|true
65|1|66|anonym-66|1|71|7.271|58.17999894719105|4|3|16|false
65|1|66|anonym-66|1|72|8.115|214.88399553101044|2|6|17|false
65|1|66|anonym-66|1|73|7.514|139.36700166016817|3|3|18|false
65|1|66|anonym-66|1|74|3.314|145.91100069880486|0|8|19|true
65|1|66|anonym-66|1|75|3.091|144.7609986513853|0|3|20|false
65|1|66|anonym-66|1|76|2.581|146.5070005208254|0|8|21|true
65|1|66|anonym-66|1|77|10.025|396.60299453139305|2|8|22|true
65|1|66|anonym-66|1|78|5.197|198.52699793875217|1|8|23|true
65|1|66|anonym-66|1|79|2.615|159.93599915504456|0|7|24|true
65|1|66|anonym-66|1|80|2.266|162.3869979530573|0|8|25|true
65|1|66|anonym-66|1|81|21.35|309.66499973635655|8|8|26|true
65|1|66|anonym-66|1|82|2.619|156.64999969303608|0|8|27|true
65|1|66|anonym-66|1|83|2.277|161.49800245463848|0|8|28|true
65|1|66|anonym-66|1|84|3.875|48.52600032067858|1|2|29|false
65|1|66|anonym-66|1|85|8.821|329.2439939305186|1|8|30|true
65|1|66|anonym-66|1|86|2.578|155.39600236341357|0|8|31|true
65|1|66|anonym-66|1|87|2.416|145.83099810779095|0|8|32|true
65|1|66|anonym-66|1|88|2.567|150.38499972224236|0|8|33|true
65|1|66|anonym-66|1|89|2.659|152.70899859070778|0|8|34|true
65|1|66|anonym-66|1|90|2.203|168.16800102591515|0|8|35|true
65|1|66|anonym-66|1|91|4.031|174.31200119107962|0|8|36|true
65|1|66|anonym-66|1|92|2.527|163.05799911916256|0|8|37|true
65|1|66|anonym-66|1|93|12.472|206.15000119619071|7|8|38|true
65|1|66|anonym-66|1|94|3.996|241.65700095891953|0|8|39|true
65|1|66|anonym-66|1|95|2.603|157.46100041642785|0|8|40|true
65|1|66|anonym-66|1|96|2.21|162.785998493433|0|8|41|true
65|1|66|anonym-66|1|97|2.134|165.68900108337402|0|7|42|true
65|1|66|anonym-66|1|98|2.142|176.57399797439575|0|8|43|true
65|1|66|anonym-66|1|99|4.667|172.7509981393814|1|7|44|true
65|1|67|anonym-67|2|0|0.02|0|0|1|1|false
65|1|67|anonym-67|2|1|0.018|0|0|1|2|false
65|1|67|anonym-67|2|2|0.07|1.027999997138977|0|1|3|false
65|1|67|anonym-67|2|3|0.01|0.1899999976158142|0|1|4|false
65|1|67|anonym-67|2|4|0.002|0.004999999888241291|0|1|5|false
65|1|67|anonym-67|2|5|0.001|0.10199999809265137|0|1|6|false
65|1|67|anonym-67|2|6|0|0|0|1|7|false
65|1|67|anonym-67|2|7|0.004|0.0820000022649765|1|1|8|false
65|1|67|anonym-67|2|8|2.353|203.38300132751465|0|8|9|true
65|1|67|anonym-67|2|9|2.304|160.71700239181519|0|8|10|true
65|1|67|anonym-67|2|10|15.236|261.2209963798523|12|8|11|true
65|1|67|anonym-67|2|52|7|0.006000000284984708|0|2|12|false
65|1|67|anonym-67|2|53|0.001|0|0|1|13|false
65|1|67|anonym-67|2|54|0.03|0|0|1|14|false
65|1|67|anonym-67|2|55|0.016|0|0|1|15|false
65|1|67|anonym-67|2|56|27.04|520.7609949236503|0|8|16|true
65|1|67|anonym-67|2|57|30.353|719.5029985902365|15|8|17|false
65|1|67|anonym-67|2|58|2.282|147.94200038909912|0|8|18|true
65|1|67|anonym-67|2|59|0.001|0.012000000104308128|0|1|19|false
65|1|67|anonym-67|2|60|2.314|159.3739972114563|0|8|20|true
65|1|67|anonym-67|2|61|2.341|180.2960000038147|1|8|21|true
65|1|67|anonym-67|2|62|12.429|512.1849901954411|2|8|22|true
65|1|67|anonym-67|2|63|21.192|442.4039982815739|9|8|23|true
65|1|67|anonym-67|2|64|17.932|703.2700000633486|4|8|24|true
65|1|67|anonym-67|2|65|4.489|134.27399916748982|0|8|25|true
65|1|67|anonym-67|2|66|4.971|136.2609989643097|0|8|26|true
65|1|67|anonym-67|2|67|0.004|0.12300000339746475|0|1|27|false
65|1|67|anonym-67|2|68|2.592|136.7049970626831|0|8|28|true
65|1|67|anonym-67|2|69|14.133|760.9670002311468|0|8|29|true
65|1|67|anonym-67|2|70|2.39|173.42899894714355|0|8|30|true
65|1|67|anonym-67|2|71|11.829|874.0939979553223|0|8|31|true
65|1|67|anonym-67|2|72|4.646|361.79500246047974|0|8|32|true
65|1|67|anonym-67|2|73|15.061|322.0579996625893|5|8|33|true
65|1|67|anonym-67|2|74|7.434|492.11900103092194|0|8|34|true
65|1|67|anonym-67|2|75|7.052|508.3040010333061|0|8|35|true
65|1|67|anonym-67|2|76|2.278|183.90699982643127|0|8|36|true
65|1|67|anonym-67|2|77|2.28|181.4880018234253|0|8|37|true
65|1|67|anonym-67|2|78|8.806|387.52099895477295|2|8|38|true
65|1|67|anonym-67|2|79|0.005|0.05700000002980232|0|1|39|false
65|1|67|anonym-67|2|80|0.002|0.07800000160932541|0|1|40|false
65|1|67|anonym-67|2|81|2.311|201.4850010573864|1|8|41|true
65|1|67|anonym-67|2|82|2.221|202.43799961730838|0|8|42|true
65|1|67|anonym-67|2|83|2.206|197.86700129508972|0|8|43|true
65|1|67|anonym-67|2|84|4.161|144.74500112235546|0|8|44|true
65|1|67|anonym-67|2|85|0.002|0.028999999165534973|0|1|45|false
65|1|67|anonym-67|2|86|12.649|188.80900355486665|1|8|46|true
65|1|67|anonym-67|2|87|7.048|213.96199948887806|2|7|47|true
65|1|67|anonym-67|2|88|15.981|193.0180000802502|5|8|48|true
65|1|67|anonym-67|2|89|7.482|124.85399575834163|2|2|49|false
65|1|67|anonym-67|2|90|0.005|0|1|1|50|false
65|1|67|anonym-67|2|91|0.62|0|2|1|51|false
65|1|67|anonym-67|2|92|0.004|0|0|1|52|false
65|1|67|anonym-67|2|93|0.014|0|0|1|53|false
65|1|67|anonym-67|2|94|0.001|0|0|1|54|false
65|1|67|anonym-67|2|95|2.371|0.0020000000949949026|0|1|55|false
65|1|67|anonym-67|2|96|0.001|0|0|1|56|false
65|1|67|anonym-67|2|97|0.005|0|0|1|57|false
65|1|67|anonym-67|2|98|0.093|0|0|1|58|false
65|1|67|anonym-67|2|99|0.008|0|0|1|59|false
