session_id|player_id|track_num
1|1|1
1|2|2
2|1|1
2|2|2
3|1|1
3|2|2
4|1|1
4|3|2
5|4|1
5|5|2
6|1|1
6|6|2
7|4|1
7|7|2
8|7|2
8|8|1
9|7|2
9|9|1
10|7|2
10|10|1
11|1|1
11|7|2
12|11|1
12|12|2
13|10|1
13|7|2
14|10|1
14|7|2
15|10|1
15|7|2
16|9|1
16|13|2
17|8|2
17|14|1
18|15|1
18|16|2
19|17|1
19|18|2
20|19|1
20|20|2
21|1|1
21|3|2
22|4|1
22|13|2
23|10|1
23|13|2
24|16|1
24|21|2
25|22|1
25|23|2
26|10|1
26|13|2
27|9|1
27|8|2
28|7|2
28|24|1
29|7|1
30|7|1
31|25|1
31|26|2
32|14|1
32|17|2
33|1|1
33|3|2
34|3|2
34|27|1
35|4|1
35|28|2
36|29|1
36|30|2
37|31|1
38|7|1
39|32|1
39|33|2
40|7|1
41|4|1
41|7|2
42|4|1
42|7|2
43|4|1
43|7|2
44|7|1
44|4|2
45|7|2
45|34|1
46|7|2
46|35|1
47|36|1
47|37|2
48|7|2
48|38|1
49|7|2
49|39|1
50|40|1
50|41|2
51|42|1
51|43|2
52|44|1
52|45|2
53|46|1
53|47|2
54|48|1
54|49|2
55|48|1
55|49|2
56|50|1
56|51|2
57|52|1
57|53|2
58|54|1
58|55|2
59|56|1
60|7|2
60|57|1
61|58|1
61|59|2
62|60|1
62|61|2
63|62|1
63|63|2
64|64|1
64|65|2
65|66|1
65|67|2
